ghdl/demux.vcd
$date
  Wed Mar 29 01:35:04 2017
$end
$version
  GHDL v0
$end
$timescale
  1 fs
$end
$var reg 2 ! in_vec[1:0] $end
$var reg 3 " sel[2:0] $end
$var reg 1 # en $end
$comment demux_out is not handled $end
$var reg 2 $ out0[1:0] $end
$var reg 2 % out1[1:0] $end
$var reg 2 & out2[1:0] $end
$var reg 2 ' out3[1:0] $end
$var reg 2 ( out4[1:0] $end
$var reg 2 ) out5[1:0] $end
$var reg 2 * out6[1:0] $end
$var reg 2 + out7[1:0] $end
$scope module d_mux $end
$var reg 2 , in_vec[1:0] $end
$var reg 3 - sel[2:0] $end
$var reg 1 . en $end
$comment out_vecs is not handled $end
$upscope $end
$enddefinitions $end
#0
b11 !
b000 "
1#
b11 $
b00 %
b00 &
b00 '
b00 (
b00 )
b00 *
b00 +
b11 ,
b000 -
1.
#5000000
b001 "
b00 $
b11 %
b001 -
#10000000
b010 "
b00 %
b11 &
b010 -
#15000000
b011 "
b00 &
b11 '
b011 -
#20000000
b100 "
b00 '
b11 (
b100 -
#25000000
b101 "
b00 (
b11 )
b101 -
#30000000
b110 "
b00 )
b11 *
b110 -
#35000000
b111 "
b00 *
b11 +
b111 -
#40000000
b000 "
0#
b00 +
b000 -
0.
#45000000
b001 "
b001 -
#50000000
b010 "
b010 -
#55000000
b011 "
b011 -
#60000000
b100 "
b100 -
#65000000
b101 "
b101 -
#70000000
b110 "
b110 -
#75000000
b111 "
b111 -
#80000000
b000 "
b000 -
