ghdl/shift.vcd
$date
  Wed Mar 29 16:38:16 2017
$end
$version
  GHDL v0
$end
$timescale
  1 fs
$end
$var reg 4 ! i[3:0] $end
$var reg 4 " o[3:0] $end
$var reg 1 # i_shift_in $end
$var reg 1 $ clk $end
$var reg 1 % enable $end
$var reg 2 & sel[1:0] $end
$scope module shift_reg_0 $end
$var reg 4 ' i[3:0] $end
$var reg 1 ( i_shift_in $end
$var reg 2 ) sel[1:0] $end
$var reg 1 * clock $end
$var reg 1 + enable $end
$var reg 4 , o[3:0] $end
$var reg 4 - d[3:0] $end
$upscope $end
$enddefinitions $end
#0
b0001 !
bUUUU "
1#
0$
1%
b11 &
b0001 '
1(
b11 )
0*
1+
bUUUU ,
bUUUU -
#1000000
b0001 "
1$
1*
b0001 ,
b0001 -
#2000000
0#
0$
b00 &
0(
b00 )
0*
#3000000
1$
1*
#4000000
1#
0$
b01 &
1(
b01 )
0*
#5000000
b0011 "
1$
1*
b0011 ,
b0011 -
#6000000
0#
0$
0(
0*
#7000000
b0110 "
1$
1*
b0110 ,
b0110 -
#8000000
0$
0*
#9000000
b1100 "
1$
1*
b1100 ,
b1100 -
#10000000
0$
0*
#11000000
b1000 "
1$
1*
b1000 ,
b1000 -
#12000000
0$
0*
#13000000
b0000 "
1$
1*
b0000 ,
b0000 -
#14000000
1#
0$
b10 &
1(
b10 )
0*
#15000000
b1000 "
1$
1*
b1000 ,
b1000 -
#16000000
0$
0*
#17000000
b1100 "
1$
1*
b1100 ,
b1100 -
#18000000
0#
0$
0(
0*
#19000000
b0110 "
1$
1*
b0110 ,
b0110 -
#20000000
0$
0*
#21000000
b0011 "
1$
1*
b0011 ,
b0011 -
#22000000
b0101 !
1#
0$
b11 &
b0101 '
1(
b11 )
0*
#23000000
b0101 "
1$
1*
b0101 ,
b0101 -
#24000000
0#
0$
b00 &
0(
b00 )
0*
#25000000
1$
1*
#26000000
1#
0$
b01 &
1(
b01 )
0*
#27000000
b1011 "
1$
1*
b1011 ,
b1011 -
#28000000
0#
0$
0(
0*
#29000000
b0110 "
1$
1*
b0110 ,
b0110 -
#30000000
0$
0*
#31000000
b1100 "
1$
1*
b1100 ,
b1100 -
#32000000
0$
0*
#33000000
b1000 "
1$
1*
b1000 ,
b1000 -
#34000000
0$
0*
#35000000
b0000 "
1$
1*
b0000 ,
b0000 -
#36000000
1#
0$
b10 &
1(
b10 )
0*
#37000000
b1000 "
1$
1*
b1000 ,
b1000 -
#38000000
0$
0*
#39000000
b1100 "
1$
1*
b1100 ,
b1100 -
#40000000
0#
0$
0(
0*
#41000000
b0110 "
1$
1*
b0110 ,
b0110 -
#42000000
0$
0*
#43000000
b0011 "
1$
1*
b0011 ,
b0011 -
#44000000
b0001 !
b0000 "
1#
0$
0%
b11 &
b0001 '
1(
b11 )
0*
0+
b0000 ,
b0000 -
#45000000
1$
1*
#46000000
0#
0$
b00 &
0(
b00 )
0*
#47000000
1$
1*
#48000000
1#
0$
b01 &
1(
b01 )
0*
#49000000
1$
1*
#50000000
0#
0$
0(
0*
#51000000
1$
1*
#52000000
0$
0*
#53000000
1$
1*
#54000000
0$
0*
#55000000
1$
1*
#56000000
0$
0*
#57000000
1$
1*
#58000000
1#
0$
b10 &
1(
b10 )
0*
#59000000
1$
1*
#60000000
0$
0*
#61000000
1$
1*
#62000000
0#
0$
0(
0*
#63000000
1$
1*
#64000000
0$
0*
#65000000
1$
1*
#66000000
b0101 !
1#
0$
b11 &
b0101 '
1(
b11 )
0*
#67000000
1$
1*
#68000000
0#
0$
b00 &
0(
b00 )
0*
#69000000
1$
1*
#70000000
1#
0$
b01 &
1(
b01 )
0*
#71000000
1$
1*
#72000000
0#
0$
0(
0*
#73000000
1$
1*
#74000000
0$
0*
#75000000
1$
1*
#76000000
0$
0*
#77000000
1$
1*
#78000000
0$
0*
#79000000
1$
1*
#80000000
1#
0$
b10 &
1(
b10 )
0*
#81000000
1$
1*
#82000000
0$
0*
#83000000
1$
1*
#84000000
0#
0$
0(
0*
