ghdl/shift8.vcd
$date
  Wed Mar 29 17:42:06 2017
$end
$version
  GHDL v0
$end
$timescale
  1 fs
$end
$var reg 8 ! i[7:0] $end
$var reg 8 " o[7:0] $end
$var reg 1 # i_shift_in $end
$var reg 1 $ clk $end
$var reg 1 % enable $end
$var reg 2 & sel[1:0] $end
$scope module shift_reg_0 $end
$var reg 8 ' i[7:0] $end
$var reg 1 ( i_shift_in $end
$var reg 2 ) sel[1:0] $end
$var reg 1 * clock $end
$var reg 1 + enable $end
$var reg 8 , o[7:0] $end
$var reg 1 - i_shift_in_1 $end
$var reg 1 . i_shift_in_0 $end
$var reg 8 / d[7:0] $end
$scope module sr1 $end
$var reg 4 0 i[3:0] $end
$var reg 1 1 i_shift_in $end
$var reg 2 2 sel[1:0] $end
$var reg 1 3 clock $end
$var reg 1 4 enable $end
$var reg 4 5 o[3:0] $end
$var reg 4 6 d[3:0] $end
$upscope $end
$scope module sr0 $end
$var reg 4 7 i[3:0] $end
$var reg 1 8 i_shift_in $end
$var reg 2 9 sel[1:0] $end
$var reg 1 : clock $end
$var reg 1 ; enable $end
$var reg 4 < o[3:0] $end
$var reg 4 = d[3:0] $end
$upscope $end
$upscope $end
$enddefinitions $end
#0
b01000001 !
bUUUUUUUU "
1#
0$
1%
b11 &
b01000001 '
1(
b11 )
0*
1+
bUUUUUUUU ,
0-
0.
bUUUUUUUU /
b0100 0
01
b11 2
03
14
bUUUU 5
bUUUU 6
b0001 7
08
b11 9
0:
1;
bUUUU <
bUUUU =
#1000000
b01000001 "
1$
1*
b01000001 ,
b01000001 /
13
b0100 5
b0100 6
1:
b0001 <
b0001 =
#2000000
0#
0$
b00 &
0(
b00 )
0*
b00 2
03
b00 9
0:
#3000000
1$
1*
13
1:
#4000000
1#
0$
b01 &
1(
b01 )
0*
1.
b01 2
03
18
b01 9
0:
#5000000
b10000011 "
1$
1*
b10000011 ,
b10000011 /
13
b1000 5
b1000 6
1:
b0011 <
b0011 =
#6000000
0#
0$
0(
0*
0.
03
08
0:
#7000000
b00000110 "
1$
1*
b00000110 ,
b00000110 /
13
b0000 5
b0000 6
1:
b0110 <
b0110 =
#8000000
0$
0*
03
0:
#9000000
b00001100 "
1$
1*
b00001100 ,
1-
b00001100 /
11
13
1:
b1100 <
b1100 =
#10000000
0$
0*
03
0:
#11000000
b00011000 "
1$
1*
b00011000 ,
b00011000 /
13
b0001 5
b0001 6
1:
b1000 <
b1000 =
#12000000
0$
0*
03
0:
#13000000
b00110000 "
1$
1*
b00110000 ,
0-
b00110000 /
01
13
b0011 5
b0011 6
1:
b0000 <
b0000 =
#14000000
1#
0$
b10 &
1(
b10 )
0*
1-
1.
11
b10 2
03
18
b10 9
0:
#15000000
b10011000 "
1$
1*
b10011000 ,
b10011000 /
13
b1001 5
b1001 6
1:
b1000 <
b1000 =
#16000000
0$
0*
03
0:
#17000000
b11001100 "
1$
1*
b11001100 ,
0.
b11001100 /
13
b1100 5
b1100 6
08
1:
b1100 <
b1100 =
#18000000
0#
0$
0(
0*
0-
01
03
0:
#19000000
b01100110 "
1$
1*
b01100110 ,
b01100110 /
13
b0110 5
b0110 6
1:
b0110 <
b0110 =
#20000000
0$
0*
03
0:
#21000000
b00110011 "
1$
1*
b00110011 ,
1.
b00110011 /
13
b0011 5
b0011 6
18
1:
b0011 <
b0011 =
#22000000
b11010100 !
1#
0$
b11 &
b11010100 '
1(
b11 )
0*
0.
b1101 0
b11 2
03
b0100 7
08
b11 9
0:
#23000000
b11010100 "
1$
1*
b11010100 ,
b11010100 /
13
b1101 5
b1101 6
1:
b0100 <
b0100 =
#24000000
0#
0$
b00 &
0(
b00 )
0*
b00 2
03
b00 9
0:
#25000000
1$
1*
13
1:
#26000000
1#
0$
b01 &
1(
b01 )
0*
1.
b01 2
03
18
b01 9
0:
#27000000
b10101001 "
1$
1*
b10101001 ,
1-
b10101001 /
11
13
b1010 5
b1010 6
1:
b1001 <
b1001 =
#28000000
0#
0$
0(
0*
0.
03
08
0:
#29000000
b01010010 "
1$
1*
b01010010 ,
0-
b01010010 /
01
13
b0101 5
b0101 6
1:
b0010 <
b0010 =
#30000000
0$
0*
03
0:
#31000000
b10100100 "
1$
1*
b10100100 ,
b10100100 /
13
b1010 5
b1010 6
1:
b0100 <
b0100 =
#32000000
0$
0*
03
0:
#33000000
b01001000 "
1$
1*
b01001000 ,
1-
b01001000 /
11
13
b0100 5
b0100 6
1:
b1000 <
b1000 =
#34000000
0$
0*
03
0:
#35000000
b10010000 "
1$
1*
b10010000 ,
0-
b10010000 /
01
13
b1001 5
b1001 6
1:
b0000 <
b0000 =
#36000000
1#
0$
b10 &
1(
b10 )
0*
1-
1.
11
b10 2
03
18
b10 9
0:
#37000000
b11001000 "
1$
1*
b11001000 ,
0.
b11001000 /
13
b1100 5
b1100 6
08
1:
b1000 <
b1000 =
#38000000
0$
0*
03
0:
#39000000
b11100100 "
1$
1*
b11100100 ,
b11100100 /
13
b1110 5
b1110 6
1:
b0100 <
b0100 =
#40000000
0#
0$
0(
0*
0-
01
03
0:
#41000000
b01110010 "
1$
1*
b01110010 ,
1.
b01110010 /
13
b0111 5
b0111 6
18
1:
b0010 <
b0010 =
#42000000
0$
0*
03
0:
#43000000
b00111001 "
1$
1*
b00111001 ,
b00111001 /
13
b0011 5
b0011 6
1:
b1001 <
b1001 =
#44000000
b01000001 !
b00000000 "
1#
0$
0%
b11 &
b01000001 '
1(
b11 )
0*
0+
b00000000 ,
0.
b00000000 /
b0100 0
b11 2
03
04
b0000 5
b0000 6
b0001 7
08
b11 9
0:
0;
b0000 <
b0000 =
#45000000
1$
1*
13
1:
#46000000
0#
0$
b00 &
0(
b00 )
0*
b00 2
03
b00 9
0:
#47000000
1$
1*
13
1:
#48000000
1#
0$
b01 &
1(
b01 )
0*
1.
b01 2
03
18
b01 9
0:
#49000000
1$
1*
13
1:
#50000000
0#
0$
0(
0*
0.
03
08
0:
#51000000
1$
1*
13
1:
#52000000
0$
0*
03
0:
#53000000
1$
1*
13
1:
#54000000
0$
0*
03
0:
#55000000
1$
1*
13
1:
#56000000
0$
0*
03
0:
#57000000
1$
1*
13
1:
#58000000
1#
0$
b10 &
1(
b10 )
0*
1-
11
b10 2
03
b10 9
0:
#59000000
1$
1*
13
1:
#60000000
0$
0*
03
0:
#61000000
1$
1*
13
1:
#62000000
0#
0$
0(
0*
0-
01
03
0:
#63000000
1$
1*
13
1:
#64000000
0$
0*
03
0:
#65000000
1$
1*
13
1:
#66000000
b11010100 !
1#
0$
b11 &
b11010100 '
1(
b11 )
0*
b1101 0
b11 2
03
b0100 7
b11 9
0:
#67000000
1$
1*
13
1:
#68000000
0#
0$
b00 &
0(
b00 )
0*
b00 2
03
b00 9
0:
#69000000
1$
1*
13
1:
#70000000
1#
0$
b01 &
1(
b01 )
0*
1.
b01 2
03
18
b01 9
0:
#71000000
1$
1*
13
1:
#72000000
0#
0$
0(
0*
0.
03
08
0:
#73000000
1$
1*
13
1:
#74000000
0$
0*
03
0:
#75000000
1$
1*
13
1:
#76000000
0$
0*
03
0:
#77000000
1$
1*
13
1:
#78000000
0$
0*
03
0:
#79000000
1$
1*
13
1:
#80000000
1#
0$
b10 &
1(
b10 )
0*
1-
11
b10 2
03
b10 9
0:
#81000000
1$
1*
13
1:
#82000000
0$
0*
03
0:
#83000000
1$
1*
13
1:
#84000000
0#
0$
0(
0*
0-
01
03
0:
